{
  "dates": {
    "maximum": "2025-11-05",
    "minimum": "2025-09-24"
  },
  "page": 1,
  "total_pages": 2,
  "total_results": 6730,
  "results": [
    {
      "adult": false,
      "backdrop_path": "/kHOfxq7cMTXyLbj0UmdoGhT540O.jpg",
      "genre_ids": [
        878,
        28,
        35
      ],
      "id": 507244,
      "original_language": "en",
      "original_title": "Afterburn",
      "overview": "Set against the backdrop of a postapocalyptic Earth whose Eastern Hemisphere was destroyed by a massive solar flare, leaving what life remains mutated from radiation and fallout. The story revolves around a group of treasure hunters who extract such objects as the Mona Lisa, the Rosetta Stone and the Crown Jewels while facing rival hunters, mutants and pirates.",
      "popularity": 357.8025,
      "poster_path": "/xR0IhVBjbNU34b8erhJCgRbjXo3.jpg",
      "release_date": "2025-08-20",
      "title": "Afterburn",
      "video": false,
      "vote_average": 6.88,
      "vote_count": 92
    },
    {
      "adult": false,
      "backdrop_path": "/7QirCB1o80NEFpQGlQRZerZbQEp.jpg",
      "genre_ids": [
        10749,
        18
      ],
      "id": 1156594,
      "original_language": "es",
      "original_title": "Culpa nuestra",
      "overview": "Jenna and Lion's wedding brings about the long-awaited reunion between Noah and Nick after their breakup. Nick's inability to forgive Noah stands as an insurmountable barrier. He, heir to his grandfather's businesses, and she, starting her professional life, resist fueling a flame that's still alive. But now that their paths have crossed again, will love be stronger than resentment?",
      "popularity": 209.1102,
      "poster_path": "/yzqHt4m1SeY9FbPrfZ0C2Hi9x1s.jpg",
      "release_date": "2025-10-15",
      "title": "Our Fault",
      "video": false,
      "vote_average": 7.571,
      "vote_count": 456
    },
    {
      "adult": false,
      "backdrop_path": "/qcDDn7WeKBenM4nLlOPXAeJ4hpg.jpg",
      "genre_ids": [
        53,
        28,
        12
      ],
      "id": 1280450,
      "original_language": "en",
      "original_title": "Stolen Girl",
      "overview": "In 1993, Maureen’s six-year-old daughter Amina is snuck out of the country by her ex-husband, Karim. After years of unsuccessful attempts to find her, Maureen intersects with a professional retriever of internationally abducted children who promises to help her find Amina in exchange for her collaboration.",
      "popularity": 191.6942,
      "poster_path": "/fZlNXEHZsBp7unqw009MeBbMv87.jpg",
      "release_date": "2025-09-04",
      "title": "Stolen Girl",
      "video": false,
      "vote_average": 6.5,
      "vote_count": 61
    },
    {
      "adult": false,
      "backdrop_path": "/82lM4GJ9uuNvNDOEpxFy77uv4Ak.jpg",
      "genre_ids": [
        28,
        878,
        12
      ],
      "id": 1242898,
      "original_language": "en",
      "original_title": "Predator: Badlands",
      "overview": "Cast out from his clan, a young Predator finds an unlikely ally in a damaged android and embarks on a treacherous journey in search of the ultimate adversary.",
      "popularity": 109.8495,
      "poster_path": "/ef2QSeBkrYhAdfsWGXmp0lvH0T1.jpg",
      "release_date": "2025-11-05",
      "title": "Predator: Badlands",
      "video": false,
      "vote_average": 6.125,
      "vote_count": 16
    },
    {
      "adult": false,
      "backdrop_path": "/cNmGq1bfUDhrZEHvJ77zwiWfoNA.jpg",
      "genre_ids": [
        27,
        53
      ],
      "id": 1306525,
      "original_language": "id",
      "original_title": "Abadi Nan Jaya",
      "overview": "An elixir unleashes the undead in a village. A family at odds with one another must unite and fight to survive as their hometown collapses.",
      "popularity": 91.3854,
      "poster_path": "/hQYEkXiAcgzQkr4aqLxWpNUFvN5.jpg",
      "release_date": "2025-10-22",
      "title": "The Elixir",
      "video": false,
      "vote_average": 5.996,
      "vote_count": 112
    },
    {
      "adult": false,
      "backdrop_path": "/en0NbTEjf3qKokHvwGeaq9DBPIP.jpg",
      "genre_ids": [
        14,
        18,
        12
      ],
      "id": 1571470,
      "original_language": "en",
      "original_title": "The Rats: A Witcher Tale",
      "overview": "To pull off a daring heist, a gang of six misfit outlaws will have to do something they've never done before: trust each other — and a washed-up Witcher.",
      "popularity": 121.6171,
      "poster_path": "/5Gr4amaB1xxeYAEMOdrVutaWwgz.jpg",
      "release_date": "2025-10-29",
      "title": "The Rats: A Witcher Tale",
      "video": false,
      "vote_average": 4.942,
      "vote_count": 43
    },
    {
      "adult": false,
      "backdrop_path": "/cc48kfehVAkgG73BsPcFLMoxa8h.jpg",
      "genre_ids": [
        9648,
        53,
        80,
        18
      ],
      "id": 1272166,
      "original_language": "en",
      "original_title": "Ballad of a Small Player",
      "overview": "Amid the glittering casinos of Macau, a gambler running from his past — and his debts — becomes fascinated by an enigmatic woman at the baccarat table.",
      "popularity": 88.214,
      "poster_path": "/yiXpXNiBWENaSJmdKfoT5DU0bL4.jpg",
      "release_date": "2025-10-15",
      "title": "Ballad of a Small Player",
      "video": false,
      "vote_average": 5.97,
      "vote_count": 117
    },
    {
      "adult": false,
      "backdrop_path": "/bWF5ImUscXXYia8owpm8coadR4m.jpg",
      "genre_ids": [
        28,
        27,
        10752
      ],
      "id": 1257009,
      "original_language": "en",
      "original_title": "Primitive War",
      "overview": "During the Vietnam War, a recon unit ventures to an isolated jungle valley to uncover the fate of a missing platoon. They soon find themselves in a fight for their lives against an unexpected enemy — prehistoric dinosaurs.",
      "popularity": 90.2663,
      "poster_path": "/nWBqU5YXmDVJWWEDJ4u3ZSseNVL.jpg",
      "release_date": "2025-08-21",
      "title": "Primitive War",
      "video": false,
      "vote_average": 6.836,
      "vote_count": 149
    },
    {
      "adult": false,
      "backdrop_path": "/ax2qCKU6tUhdkStiCnrDdXKA5xC.jpg",
      "genre_ids": [
        28,
        12
      ],
      "id": 1086910,
      "original_language": "en",
      "original_title": "The Lost Princess",
      "overview": "After an Ayahuasca vision transports him to a haunted castle, Alec meets Hanna who tales him the story of her mother's forced marriage and how the forbidden passion with her father was in danger when the princess pregnancy became obvious",
      "popularity": 86.7913,
      "poster_path": "/31S2ISsDtbnxb0kuXZl1SxSMD0K.jpg",
      "release_date": "2025-10-16",
      "title": "The Lost Princess",
      "video": false,
      "vote_average": 6.4,
      "vote_count": 33
    },
    {
      "adult": false,
      "backdrop_path": "/cKZcDKawR79igCgDMSXlpkn8hLR.jpg",
      "genre_ids": [
        18,
        53,
        10749
      ],
      "id": 997113,
      "original_language": "en",
      "original_title": "Hedda",
      "overview": "Hedda Gabler finds herself torn between the lingering ache of a past love and the quiet suffocation of her present life. Over the course of one charged night, long-repressed desires and hidden tensions erupt—pulling her and everyone around her into a spiral of manipulation, passion, and betrayal.",
      "popularity": 84.7781,
      "poster_path": "/ecflk7AZf0ij205yDswjlvdxlCO.jpg",
      "release_date": "2025-10-22",
      "title": "Hedda",
      "video": false,
      "vote_average": 5.041,
      "vote_count": 37
    }
  ]
}